<svg width="34" height="41" viewBox="0 0 34 41" fill="none" xmlns="http://www.w3.org/2000/svg">
<path d="M33 17.5958H1V40H28.9149C31.171 40 33 38.1711 33 35.9149V17.5958Z" stroke="#171321" stroke-width="0.680851" stroke-miterlimit="10"/>
<path d="M27.2565 17.5957V11.2564C27.2565 5.59196 22.6645 1 17.0001 1V1C11.3356 1 6.74365 5.59195 6.74365 11.2564V17.5957" stroke="#171321" stroke-width="0.680851" stroke-miterlimit="10"/>
<path d="M17 32.117V25.4787" stroke="#171321" stroke-width="0.680851" stroke-miterlimit="10"/>
</svg>
