<svg width="16" height="17" viewBox="0 0 16 17" fill="none" xmlns="http://www.w3.org/2000/svg">
<path fill-rule="evenodd" clip-rule="evenodd" d="M10.5 5.69141C10.5 7.07212 9.38071 8.19141 8 8.19141C6.61929 8.19141 5.5 7.07212 5.5 5.69141C5.5 4.31069 6.61929 3.19141 8 3.19141C9.38071 3.19141 10.5 4.31069 10.5 5.69141ZM11.0142 8.3211C11.6281 7.618 12 6.69814 12 5.69141C12 3.48227 10.2091 1.69141 8 1.69141C5.79086 1.69141 4 3.48227 4 5.69141C4 6.69813 4.37191 7.618 4.98584 8.3211C3.2678 8.77005 2 10.3327 2 12.1914V13.6914C2 14.796 2.89543 15.6914 4 15.6914H12C13.1046 15.6914 14 14.796 14 13.6914V12.1914C14 10.3327 12.7322 8.77005 11.0142 8.3211ZM8 9.69141H6C4.61929 9.69141 3.5 10.8107 3.5 12.1914V13.6914C3.5 13.9675 3.72386 14.1914 4 14.1914H12C12.2761 14.1914 12.5 13.9675 12.5 13.6914V12.1914C12.5 10.8107 11.3807 9.69141 10 9.69141H8Z" fill="#7759C2"/>
</svg>
