<svg width="57" height="57" viewBox="0 0 57 57" fill="none" xmlns="http://www.w3.org/2000/svg">
<path d="M28.4999 22.7266L28.4999 -5.63611e-05" stroke="url(#paint0_linear_262_4963)" stroke-width="0.450965"/>
<path d="M28.4999 57.0001L28.4999 34.2734" stroke="url(#paint1_linear_262_4963)" stroke-width="0.450965"/>
<path d="M34.2733 27.9648L56.9999 27.9648" stroke="url(#paint2_linear_262_4963)" stroke-width="0.450965"/>
<path d="M-5.34876e-05 27.9648L22.7266 27.9648" stroke="url(#paint3_linear_262_4963)" stroke-width="0.450965"/>
<defs>
<linearGradient id="paint0_linear_262_4963" x1="28.4746" y1="22.7519" x2="28.4746" y2="-0.0253644" gradientUnits="userSpaceOnUse">
<stop stop-color="#7759C2"/>
<stop offset="1" stop-color="#FCA326"/>
</linearGradient>
<linearGradient id="paint1_linear_262_4963" x1="28.4746" y1="57.0254" x2="28.4746" y2="34.2481" gradientUnits="userSpaceOnUse">
<stop stop-color="#7759C2"/>
<stop offset="1" stop-color="#FCA326"/>
</linearGradient>
<linearGradient id="paint2_linear_262_4963" x1="34.248" y1="27.9395" x2="57.0252" y2="27.9395" gradientUnits="userSpaceOnUse">
<stop stop-color="#7759C2"/>
<stop offset="1" stop-color="#FCA326"/>
</linearGradient>
<linearGradient id="paint3_linear_262_4963" x1="-0.0253608" y1="27.9395" x2="22.7519" y2="27.9395" gradientUnits="userSpaceOnUse">
<stop stop-color="#7759C2"/>
<stop offset="1" stop-color="#FCA326"/>
</linearGradient>
</defs>
</svg>
