<svg width="544" height="96" viewBox="0 0 544 96" fill="none" xmlns="http://www.w3.org/2000/svg">
<g clip-path="url(#clip0_517_9991)">
<path d="M354 74.49C344.24 74.49 336.083 71.21 329.53 64.65C322.977 58.09 319.723 49.9033 319.77 40.09C319.77 30.27 323.023 22.11 329.53 15.61C336.037 8.98999 344.193 5.67999 354 5.67999C363.927 5.67999 371.99 9.26666 378.19 16.44L372.12 22.33C369.967 19.5995 367.21 17.4054 364.066 15.9202C360.922 14.4349 357.477 13.6989 354 13.77C350.608 13.6838 347.233 14.2922 344.084 15.5579C340.936 16.8235 338.079 18.7198 335.69 21.13C330.843 25.9833 328.42 32.3167 328.42 40.13C328.42 47.9433 330.847 54.2333 335.7 59C338.083 61.4181 340.936 63.3223 344.084 64.595C347.231 65.8677 350.606 66.482 354 66.4C361.66 66.4 368.327 63.18 374 56.74L380.16 62.74C377.042 66.4779 373.107 69.4508 368.66 71.43C364.052 73.4985 359.051 74.5425 354 74.49ZM394.14 7.14999V73H385.67V7.14999H394.14ZM400.25 50.48C400.25 43.5467 402.43 37.8133 406.79 33.28C408.938 31.0479 411.529 29.2892 414.396 28.1165C417.263 26.9438 420.344 26.3829 423.44 26.47C426.523 26.3807 429.591 26.9408 432.444 28.114C435.297 29.2873 437.871 31.0473 440 33.28C444.413 37.82 446.62 43.5533 446.62 50.48C446.62 57.4067 444.413 63.1433 440 67.69C437.871 69.9209 435.296 71.6791 432.443 72.8505C429.59 74.022 426.523 74.5806 423.44 74.49C420.344 74.5789 417.264 74.02 414.397 72.849C411.529 71.678 408.939 69.9208 406.79 67.69C402.43 63.15 400.25 57.4133 400.25 50.48ZM408.72 50.48C408.72 55.3267 410.13 59.2533 412.95 62.26C414.301 63.6884 415.928 64.8263 417.734 65.6039C419.539 66.3815 421.484 66.7826 423.45 66.7826C425.416 66.7826 427.361 66.3815 429.166 65.6039C430.972 64.8263 432.6 63.6884 433.95 62.26C436.77 59.2533 438.18 55.3267 438.18 50.48C438.18 45.6333 436.763 41.74 433.93 38.8C432.594 37.3465 430.971 36.1861 429.164 35.3923C427.357 34.5986 425.404 34.1887 423.43 34.1887C421.456 34.1887 419.503 34.5986 417.696 35.3923C415.889 36.1861 414.266 37.3465 412.93 38.8C410.123 41.8 408.72 45.6933 408.72 50.48ZM492.23 73H484.13V66.77H483.76C482.321 69.1142 480.271 71.0224 477.83 72.29C475.288 73.7264 472.42 74.4841 469.5 74.49C463.98 74.49 459.733 72.9133 456.76 69.76C453.787 66.6067 452.3 62.1133 452.3 56.28V27.94H460.76V55.73C460.947 63.0633 464.657 66.73 471.89 66.73C473.522 66.7456 475.136 66.3837 476.605 65.6725C478.075 64.9612 479.36 63.92 480.36 62.63C482.637 59.8796 483.844 56.3996 483.76 52.83V27.94H492.23V73ZM519.72 74.47C516.833 74.478 513.979 73.8558 511.357 72.6468C508.735 71.4377 506.409 69.671 504.54 67.47C500.39 62.7929 498.158 56.7216 498.29 50.47C498.161 44.2188 500.392 38.1486 504.54 33.47C506.409 31.269 508.735 29.5023 511.357 28.2932C513.979 27.0842 516.833 26.462 519.72 26.47C522.87 26.432 525.983 27.1595 528.79 28.59C531.357 29.8582 533.534 31.7965 535.09 34.2H535.46L535.09 27.94V7.14999H543.55V73H535.46V66.77H535.09C533.534 69.1734 531.357 71.1118 528.79 72.38C525.982 73.807 522.87 74.5311 519.72 74.49V74.47ZM521.1 66.75C523.032 66.8051 524.951 66.4289 526.719 65.6487C528.487 64.8685 530.059 63.7041 531.32 62.24C534.08 59.2333 535.46 55.3067 535.46 50.46C535.618 46.1815 534.137 42.004 531.32 38.78C530.067 37.2995 528.5 36.118 526.731 35.3221C524.963 34.5261 523.039 34.1359 521.1 34.18C519.165 34.1514 517.247 34.5487 515.483 35.3436C513.719 36.1385 512.151 37.3117 510.89 38.78C508.073 42.004 506.592 46.1815 506.75 50.46C506.75 55.2533 508.13 59.15 510.89 62.15C512.15 63.6203 513.718 64.7962 515.482 65.5944C517.246 66.3927 519.164 66.794 521.1 66.77V66.75Z" fill="#575757"/>
<path d="M37.76 74.48C17.24 74.48 0 57.76 0 37.24C0 16.72 17.24 -2.91625e-05 37.76 -2.91625e-05C42.4794 -0.0735774 47.166 0.796077 51.5449 2.55792C55.9237 4.31976 59.9066 6.93831 63.26 10.26L56.09 17.44C51.177 12.6954 44.5894 10.0827 37.76 10.17C34.2232 10.171 30.7218 10.8746 27.4592 12.2401C24.1967 13.6056 21.2379 15.6056 18.7547 18.1241C16.2716 20.6427 14.3135 23.6294 12.9943 26.911C11.6751 30.1925 11.021 33.7035 11.07 37.24C11.0223 40.7756 11.6774 44.2855 12.9972 47.5659C14.317 50.8463 16.2753 53.8319 18.7583 56.3493C21.2413 58.8668 24.1997 60.8659 27.4616 62.2308C30.7235 63.5956 34.224 64.299 37.76 64.3C47.47 64.3 53 60.4 56.54 56.86C59.45 53.95 61.35 49.77 62.08 44.05H37.49V33.88H72C72.3909 35.9735 72.5752 38.1004 72.55 40.23C72.55 47.86 70.46 57.31 63.74 64.03C57.18 70.84 48.83 74.48 37.76 74.48Z" fill="#929292"/>
<path d="M124.16 50.5C124.16 56.8652 121.631 62.9697 117.131 67.4705C112.63 71.9714 106.525 74.5 100.16 74.5C93.7948 74.5 87.6903 71.9714 83.1895 67.4705C78.6886 62.9697 76.16 56.8652 76.16 50.5C76.16 44.1281 78.6912 38.0173 83.1968 33.5117C87.7024 29.0062 93.8132 26.475 100.185 26.475C106.557 26.475 112.668 29.0062 117.173 33.5117C121.679 38.0173 124.21 44.1281 124.21 50.5H124.16ZM113.64 50.5C113.64 41.87 107.39 35.97 100.14 35.97C92.89 35.97 86.63 41.87 86.63 50.5C86.63 59.13 92.89 65 100.14 65C107.39 65 113.64 59 113.64 50.5Z" fill="#858585"/>
<path d="M176.45 50.5C176.45 56.8652 173.921 62.9697 169.421 67.4706C164.92 71.9714 158.815 74.5 152.45 74.5C146.085 74.5 139.98 71.9714 135.479 67.4706C130.979 62.9697 128.45 56.8652 128.45 50.5C128.45 44.1348 130.979 38.0303 135.479 33.5294C139.98 29.0286 146.085 26.5 152.45 26.5C158.815 26.5 164.92 29.0286 169.421 33.5294C173.921 38.0303 176.45 44.1348 176.45 50.5ZM165.93 50.5C165.93 41.87 159.68 35.97 152.43 35.97C145.18 35.97 138.92 41.87 138.92 50.5C138.92 59.13 145.17 65 152.43 65C159.69 65 165.93 59 165.93 50.5Z" fill="#D6D6D6"/>
<path d="M226.47 28V71C226.47 88.71 216.03 96 203.69 96C199.141 96.0231 194.688 94.6866 190.904 92.1618C187.119 89.6371 184.176 86.0393 182.45 81.83L191.62 78C193.25 81.9 197.24 86.53 203.69 86.53C211.58 86.53 216.49 81.63 216.49 72.46V69H216.12C214.539 70.7688 212.593 72.1725 210.415 73.1136C208.238 74.0547 205.881 74.5107 203.51 74.45C191.51 74.45 180.51 64 180.51 50.56C180.51 37.12 191.51 26.49 203.51 26.49C205.872 26.4331 208.22 26.882 210.395 27.8064C212.569 28.7308 214.522 30.1095 216.12 31.85H216.49V28H226.47ZM217.21 50.62C217.21 42.17 211.58 36 204.41 36C197.24 36 191.07 42.17 191.07 50.62C191.07 59.07 197.15 65 204.41 65C211.67 65 217.21 58.94 217.21 50.59V50.62Z" fill="#919191"/>
<path d="M244.57 2.53998V73H234V2.53998H244.57Z" fill="#A4A4A4"/>
<path d="M285.38 58.4L293.55 63.85C291.357 67.1394 288.382 69.8328 284.891 71.6882C281.4 73.5436 277.503 74.5029 273.55 74.48C259.94 74.48 249.77 63.94 249.77 50.48C249.77 36.22 260.03 26.48 272.37 26.48C284.71 26.48 290.88 36.38 292.88 41.74L294 44.5L262 57.76C264.45 62.58 268.26 65.03 273.62 65.03C278.98 65.03 282.66 62.4 285.38 58.4ZM260.24 49.77L281.66 40.87C280.48 37.87 276.94 35.78 272.76 35.78C271.014 35.86 269.301 36.2875 267.722 37.0373C266.143 37.7871 264.729 38.8442 263.563 40.1468C262.397 41.4494 261.503 42.9714 260.933 44.6237C260.362 46.2761 260.127 48.0256 260.24 49.77Z" fill="#858585"/>
</g>
<defs>
<clipPath id="clip0_517_9991">
<rect width="543.55" height="96" fill="white"/>
</clipPath>
</defs>
</svg>